// Load categories - first row of data specifies the columns (data members).
//`createdTime` and `lastUpdateTime` will be automatically handled by installer
id, name, description, displayPriority
1,Hi-Tech Aesthetics,"We believe in the efficacy of modern technology. By combining the latest proven technology with the deeply relaxing touch of the artful hands, the result is pure magic on the skin.", 99
2,Body Pampering,"Release those knots on the shoulders with a rejuvenating massage and shed some kilos with our menu of body delights curated for utter relaxation and innermost revitalisation for your dream body. Be prepared to float out of the door on cloud nine.", 98
3,Skin Deep,"Defy the clock with our line-up of pampering treatments under the artful hands of our aestheticians specialising in revitalising & rejuvenation facial massages. The skin is refreshed, deeply hydrated sans any signs of fine lines and fatigue. Renewal and radiance are radiated from inside out. Each treatment includes an ampoule, hydration masks, and our signature facial detox massage.", 97
4,No More Fuzz,"Dare to bare with TaraBliss’ semi-permanent hair removal solutions, which utilises highly advanced Dynamic Pulse Light (DPL) and Light and Heat Energy (LHE) lasers for the ultimate solution to an effortlessly silky-smooth body — all day, every day.", 96
5,Lux Indulgence,"Every significant milestone deserves to be celebrated! From radiance-boosting pre-wedding facials to tummy-tightening post-natal treatments, we care for you at every thrilling step of life’s journey. Plus, our legendary, girly spa parties are the stuff that fond memories are made of.", 95
6,Gentlemen,"We believe that men require just as much TLC as women and thus we have created a tempting line-up of men-specific face treatment is designed to deeply-cleanse, nourish and put you in a state of utter comfort and dream-like bliss.", 94
