<?xml version="1.0" encoding="utf-8"?>
<!-- Generator: Adobe Illustrator 16.0.0, SVG Export Plug-In . SVG Version: 6.00 Build 0)  -->
<!DOCTYPE svg PUBLIC "-//W3C//DTD SVG 1.1//EN" "http://www.w3.org/Graphics/SVG/1.1/DTD/svg11.dtd">
<svg version="1.1" id="Capa_1" xmlns="http://www.w3.org/2000/svg" xmlns:xlink="http://www.w3.org/1999/xlink" x="0px" y="0px"
	 width="80px" height="80px" viewBox="0 0 80 80" enable-background="new 0 0 80 80" xml:space="preserve">
<path fill="#79CCF0" d="M40,79.999c22.091,0,40-17.908,40-40C80,17.91,62.091,0,40,0C17.909,0,0,17.91,0,40
	C0,62.091,17.909,79.999,40,79.999"/>
<path fill="#FFFFFF" d="M60.068,29.521c-1.473,0.654-3.059,1.096-4.721,1.294c1.698-1.018,3.002-2.627,3.614-4.546
	c-1.589,0.942-3.346,1.625-5.222,1.992c-1.496-1.597-3.634-2.595-6-2.595c-4.537,0-8.218,3.682-8.218,8.22
	c0,0.645,0.07,1.271,0.211,1.872c-6.832-0.343-12.887-3.613-16.944-8.589c-0.708,1.218-1.113,2.629-1.113,4.136
	c0,2.849,1.452,5.366,3.658,6.842c-1.347-0.042-2.616-0.415-3.726-1.027v0.101c0,3.985,2.833,7.307,6.596,8.061
	c-0.69,0.193-1.416,0.29-2.167,0.29c-0.529,0-1.046-0.05-1.545-0.146c1.045,3.265,4.08,5.643,7.678,5.706
	c-2.813,2.206-6.358,3.52-10.209,3.52c-0.664,0-1.319-0.037-1.961-0.113c3.638,2.33,7.959,3.692,12.601,3.692
	c15.123,0,23.389-12.524,23.389-23.389c0-0.357-0.007-0.713-0.022-1.063C57.574,32.617,58.969,31.168,60.068,29.521"/>
</svg>
