<svg xmlns="http://www.w3.org/2000/svg" viewBox="0 0 30 30">
  <circle fill="none" stroke="#B5CDE0	" stroke-width="6" cx="15" cy="15" r="12"/>
  <circle fill="#18589F" cx="15" cy="15" r="9" />
</svg>
